error[E0599]: no variant named `B` found for enum `Whole`
  --> $DIR/enum_extra_case.rs:11:5
   |
3  | enum Whole {
   | ---------- variant `B` not found here
...
11 |     B { foo: &'static str },
   |     ^ help: there is a variant with a similar name: `A`
